1,6.3185e-08
2,1.04025e-07
4,2.00487e-07
8,4.53197e-07
16,1.10387e-06
32,2.98102e-06
64,6.736e-06
128,1.6976e-05
256,3.4195e-05
512,7.9852e-05
1024,0.000175648
2048,0.000376222
4096,0.0008348
8192,0.0019062
10000,0.002137
20000,0.005328
40000,0.013257
80000,0.020892
1000000,0.318123
2000000,0.669367
4000000,1.44015
